exposure,density
0.00288461538461538,2.45666991236611
0.282692307692308,2.44206426484908
0.530769230769231,2.43037974683544
0.620192307692308,2.41285296981499
0.747115384615385,2.36319376825706
0.8625,2.28432327166504
0.983653846153846,2.17332035053554
1.07307692307692,2.06231742940604
1.17692307692308,1.91626095423564
1.275,1.74391431353457
1.425,1.39629990262902
1.57211538461538,1.05160662122687
1.73653846153846,0.66601752677702
1.88653846153846,0.315481986368062
1.95288461538462,0.195715676728335
2.01923076923077,0.116845180136319
2.09134615384615,0.0701071080817918
2.18653846153846,0.0350535540408957
2.50384615384615,0.0292112950340798
2.79519230769231,0.0233690360272639
2.99134615384615,0.017526777020448
