exposure,density
0,2.415770609319
0.25089605734767,2.415770609319
0.401433691756272,2.40860215053763
0.67741935483871,2.36200716845878
0.781362007168459,2.3405017921147
0.924731182795699,2.26523297491039
1.06451612903226,2.14336917562724
1.25089605734767,1.93906810035842
1.40501792114695,1.68817204301075
1.584229390681,1.40860215053763
1.7741935483871,1.16487455197133
1.98924731182796,0.896057347670251
2.15770609318996,0.684587813620072
2.36559139784946,0.426523297491039
2.48745519713262,0.283154121863799
2.584229390681,0.189964157706093
2.70609318996416,0.129032258064516
2.84587813620072,0.0967741935483871
3.01075268817204,0.0860215053763441
3.22222222222222,0.0860215053763441
3.53405017921147,0.0752688172043011
3.79928315412186,0.0752688172043011
