wavelength,density
400.268817204301,1.45739910313901
405.645161290323,1.35874439461883
411.827956989247,1.32511210762332
417.204301075269,1.33856502242152
439.516129032258,1.45739910313901
445.698924731183,1.47533632286996
452.956989247312,1.46860986547085
459.94623655914,1.42152466367713
468.279569892473,1.30717488789238
481.182795698925,1.08071748878924
501.075268817204,0.701793721973094
509.408602150538,0.569506726457399
519.354838709677,0.437219730941704
529.838709677419,0.334080717488789
539.784946236559,0.273542600896861
554.301075268817,0.217488789237668
593.548387096774,0.159192825112108
620.967741935484,0.141255605381166
646.236559139785,0.121076233183857
700,0.0919282511210762
