exposure,density
0.0115718418514947,1.91918208373905
0.396335583413693,1.91333982473223
0.532304725168756,1.91041869522882
0.674059787849566,1.88997078870497
0.827386692381871,1.85199610516066
0.908389585342334,1.82570593962999
1.05593056894889,1.74975657254138
1.15718418514947,1.67088607594937
1.27290260366442,1.55111976630964
1.35390549662488,1.44888023369036
1.55351976856316,1.14508276533593
1.73866923818708,0.882181110029211
1.94117647058824,0.581304771178189
2.07425265188042,0.400194741966894
2.19575699132112,0.262901655306719
2.27965284474446,0.189873417721519
2.40405014464802,0.116845180136319
2.52844744455159,0.0817916260954236
2.7367405978785,0.0642648490749755
2.99421407907425,0.0584225900681596
