wavelength,sensitivity
581.141868512111,0.0275650842266464
595.934256055363,0.408882082695253
609.429065743945,0.799387442572741
618.771626297578,0.845329249617151
630.449826989619,1.052067381317
641.089965397924,1.51607963246554
647.57785467128,1.92955589586524
651.989619377163,1.947932618683
659.77508650519,1.76416539050536
668.598615916955,0.335375191424196
673.78892733564,0.119448698315467
678.979238754325,0.0275650842266464
