wavelength,sensitivity
464.100346020761,0.0459418070444103
478.373702422145,0.468606431852986
490.311418685121,1.1531393568147
497.837370242215,1.64471669218989
507.958477508651,1.89739663093415
522.491349480969,1.947932618683
537.80276816609,2.43950995405819
547.404844290657,2.73813169984686
551.557093425606,2.72434915773354
562.456747404844,1.32312404287902
568.944636678201,0.555895865237366
577.249134948097,0.091883614088821
581.141868512111,0.0275650842266464
