exposure,density
1.536,0.036
1.782,0.037
1.857,0.045
1.938,0.075
1.988,0.106
2.063,0.177
2.161,0.292
2.209,0.368
2.263,0.446
2.304,0.509
2.37,0.623
2.428,0.729
2.483,0.853
2.514,0.957
2.552,1.074
2.609,1.289
2.661,1.501
2.697,1.632
2.766,1.807
2.83,1.91
2.883,1.961
2.964,2.005
3.011,2.019
3.136,2.035
3.504,2.038
