exposure,density
0.00268817204301008,0.0860986547085202
0.67741935483871,0.0968609865470852
0.85752688172043,0.126457399103139
1.01344086021505,0.196412556053812
1.16935483870968,0.347085201793722
1.27688172043011,0.519282511210762
1.38440860215054,0.747982062780269
1.55376344086021,1.22421524663677
1.68279569892473,1.64125560538117
1.76881720430108,1.91031390134529
1.8252688172043,2.05560538116592
1.90860215053763,2.22511210762332
2.00537634408602,2.36502242152466
2.14784946236559,2.47533632286996
2.31182795698925,2.54260089686099
2.58333333333333,2.6152466367713
2.71236559139785,2.62600896860987
2.86559139784946,2.65560538116592
