wavelength,density
400,0.0317604355716878
441.165919282511,0.0431034482758621
460.538116591928,0.0930127041742287
476.412556053812,0.188294010889292
490.941704035874,0.333484573502722
503.04932735426,0.499092558983666
517.040358744395,0.710072595281307
531.838565022422,0.891560798548094
541.793721973094,0.980036297640653
549.596412556054,1.002722323049
558.206278026906,0.934664246823956
563.856502242153,0.834845735027223
579.730941704036,0.460526315789474
590.493273542601,0.274500907441016
600.448430493274,0.151996370235935
612.286995515695,0.0794010889292196
627.085201793722,0.0408348457350272
645.381165919283,0.0272232304900182
699.730941704036,0.0113430127041742
