exposure,density
-0.07312925170068,0.060975609756098
0.017006802721089,0.065040650406504
0.090136054421769,0.09349593495935
0.187074829931973,0.16869918699187
0.272108843537415,0.288617886178862
0.331632653061224,0.40650406504065
0.431972789115646,0.678861788617886
0.539115646258503,0.969512195121951
0.727891156462585,1.49390243902439
0.852040816326531,1.85569105691057
0.887755102040816,1.94105691056911
0.925170068027211,2.00609756097561
0.981292517006803,2.07317073170732
1.04761904761905,2.1239837398374
1.13775510204082,2.15447154471545
1.24319727891156,2.16260162601626
