exposure,density
-0.00590551181102006,0.209677419354839
0.91830708661417,0.209677419354839
1.11318897637795,0.220430107526882
1.31988188976378,0.282258064516129
1.44094488188976,0.365591397849462
1.60334645669291,0.604838709677419
1.71259842519685,0.884408602150538
1.875,1.45430107526882
1.93996062992126,1.70161290322581
2.04625984251969,2.05376344086022
2.12007874015748,2.26075268817204
2.17027559055118,2.36827956989247
2.23523622047244,2.46774193548387
2.33562992125984,2.57795698924731
2.51574803149606,2.6505376344086
2.66043307086614,2.68279569892473
2.97637795275591,2.72043010752688
3.12992125984252,2.7258064516129
