wavelength,density
400.538599640934,0.015695067264574
441.472172351885,0.0448430493273543
461.938958707361,0.0515695067264574
473.518850987433,0.07847533632287
484.290843806104,0.12780269058296
500.179533213645,0.257847533632287
526.840215439856,0.654708520179372
539.228007181329,0.845291479820628
548.384201077199,0.926008968609866
556.463195691203,0.975336322869955
567.773788150808,1
579.35368043088,0.932735426008969
585.816876122083,0.829596412556054
597.127468581688,0.598654708520179
610.053859964093,0.331838565022422
617.05565529623,0.230941704035874
628.096947935368,0.118834080717489
639.946140035907,0.0560538116591928
660.951526032316,0.0201793721973094
699.730700179533,0.0134529147982063
