wavelength,density
400.9,0.2305
409.8,0.177
417.4,0.137
428,0.122
442.8,0.144
458.2,0.198
472.4,0.289
491.2,0.474
500.2,0.586
510.4,0.74
518.2,0.832
525.6,0.892
534.2,0.946
545.2,0.992
550,1
556.6,0.984
562.2,0.937
569,0.845
577.4,0.688
585,0.541
589.2,0.381
597.4,0.322
604.4,0.246
611.8,0.182
623.2,0.121
634.4,0.083
647.8,0.054
700,0.013
749,0.003
