wavelength,sensitivity
403.129657228018,0.376237623762376
408.49478390462,0.462871287128713
416.095380029806,0.51980198019802
450.521609538003,0.579207920792079
454.545454545455,0.603960396039604
467.064083457526,0.74009900990099
477.347242921013,1.03960396039604
481.818181818182,1.14108910891089
485.394932935917,1.19554455445545
488.077496274218,1.19306930693069
491.654247391952,1.11138613861386
496.125186289121,0.829207920792079
498.807749627422,0.732673267326733
507.302533532042,0.477722772277228
514.903129657228,0.376237623762376
518.479880774963,0.079207920792079
