exposure,density
1.493581907,0.008241758
1.576100244,0.041208791
1.661369193,0.085164835
1.754889976,0.151098901
1.878667482,0.263736264
1.994193154,0.431318681
2.159229829,0.695054945
2.269254279,0.865384615
2.503056235,1.263736264
2.640586797,1.519230769
2.758863081,1.728021978
2.849633252,1.876373626
2.9349022,2.010989011
3.006418093,2.087912088
3.099938875,2.151098901
3.215464548,2.195054945
3.319987775,2.217032967
3.50702934,2.21978022
