exposure,density
1.807151589,0.002747253
1.873166259,0.013736264
1.908924205,0.043956044
1.952933985,0.096153846
1.996943765,0.167582418
2.035452323,0.244505495
2.090464548,0.414835165
2.134474328,0.546703297
2.18398533,0.733516484
2.236246944,0.901098901
2.277506112,1.071428571
2.307762836,1.195054945
2.362775061,1.412087912
2.395782396,1.546703297
2.42603912,1.656593407
2.486552567,1.818681319
2.527811736,1.906593407
2.604828851,2.013736264
2.676344743,2.085164835
2.734107579,2.123626374
2.866136919,2.175824176
3.006418093,2.208791209
3.165953545,2.222527473
