exposure,density
-0.273809523809524,0.065040650406504
-0.197278911564626,0.079268292682927
-0.102040816326531,0.128048780487805
0.042517006802721,0.241869918699187
0.193877551020408,0.398373983739837
0.433673469387755,0.678861788617886
0.664965986394558,0.971544715447154
1.07823129251701,1.48983739837398
1.47959183673469,2.0020325203252
1.55102040816327,2.08943089430894
1.62244897959184,2.14024390243902
1.69387755102041,2.15853658536585
1.83843537414966,2.16463414634146
