exposure,density
0,0.0913978494623656
0.63978494623656,0.0887096774193548
0.88172043010753,0.0994623655913978
1.03763440860215,0.115591397849462
1.16666666666667,0.147849462365591
1.26612903225806,0.196236559139785
1.34139784946237,0.244623655913979
1.45161290322581,0.349462365591398
1.5510752688172,0.497311827956989
1.62096774193548,0.626344086021505
1.71774193548387,0.873655913978495
1.79301075268817,1.11559139784946
1.84408602150538,1.30913978494624
1.89784946236559,1.56451612903226
1.97849462365591,1.89247311827957
2.01612903225806,2.01881720430108
2.08870967741936,2.21236559139785
2.13440860215054,2.30376344086022
2.19354838709677,2.38172043010753
2.31182795698925,2.46505376344086
2.43548387096774,2.49462365591398
2.70161290322581,2.51881720430108
2.76075268817204,2.51075268817204
2.87365591397849,2.4758064516129
