wavelength,density
400,0.415154264972777
415.336322869955,0.73956442831216
419.910313901345,0.830308529945554
427.443946188341,0.921052631578947
436.591928251121,0.982304900181488
446.008968609865,1.00499092558984
456.771300448431,0.973230490018149
465.650224215247,0.896098003629764
472.645739910314,0.798548094373866
495.784753363229,0.397005444646098
504.932735426009,0.260889292196007
516.771300448431,0.14065335753176
532.107623318386,0.058983666061706
550.134529147982,0.0181488203266788
578.385650224215,0
