wavelength,sensitivity
495.259686727123,-1.42669584245077
513.808738664468,-1.24288840262582
529.472382522671,-1.25601750547046
546.372629843364,-1.02407002188184
561.21187139324,-1.40481400437637
571.929101401484,-1.4617067833698
601.607584501237,-1.2910284463895
636.232481450948,-0.905908096280088
656.430338004946,-0.932166301969365
673.330585325639,-0.805251641137856
698.474855729596,-0.223194748358862
704.657873042045,-0.161925601750547
717.436108821105,-0.407002188183808
723.619126133553,-0.656455142231948
737.22176422094,-1.42231947483589
739.694971145919,-1.61925601750547
